…
-----

## Question 1: What specialties do we have?

We can use `count()` from `dplyr` to figure out how many different
catagories do we have? Are these catagories related? overlapping? evenly
distributed?

``` r
mt_samples %>%
  count(medical_specialty, sort = TRUE)
```

    ## # A tibble: 40 x 2
    ##    medical_specialty                 n
    ##    <chr>                         <int>
    ##  1 Surgery                        1103
    ##  2 Consult - History and Phy.      516
    ##  3 Cardiovascular / Pulmonary      372
    ##  4 Orthopedic                      355
    ##  5 Radiology                       273
    ##  6 General Medicine                259
    ##  7 Gastroenterology                230
    ##  8 Neurology                       223
    ##  9 SOAP / Chart / Progress Notes   166
    ## 10 Obstetrics / Gynecology         160
    ## # ... with 30 more rows
…
## Question 2

  - Tokenize the the words in the `transcription` column
  - Count the number of times each token appears
  - Visualize the top 20 most frequent words

<!-- end list -->

``` r
mt_samples %>% 
  unnest_tokens(token,transcription) %>% 
  count(token,sort =TRUE)
```

    ## # A tibble: 23,647 x 2
    ##    token        n
    ##    <chr>    <int>
    ##  1 the     149888
    ##  2 and      82779
    ##  3 was      71765
    ##  4 of       59205
    ##  5 to       50632
    ##  6 a        42810
    ##  7 with     35815
    ##  8 in       32807
    ##  9 is       26378
    ## 10 patient  22065
    ## # ... with 23,637 more rows
…
