…
-----

## Question 1: What specialties do we have?

We can use `count()` from `dplyr` to figure out how many different
catagories do we have? Are these catagories related? overlapping? evenly
distributed?

``` r
mt_samples %>%
  count(medical_specialty, sort = TRUE)
```

    ## # A tibble: 40 x 2
    ##    medical_specialty                 n
    ##    <chr>                         <int>
    ##  1 Surgery                        1103
    ##  2 Consult - History and Phy.      516
    ##  3 Cardiovascular / Pulmonary      372
    ##  4 Orthopedic                      355
    ##  5 Radiology                       273
    ##  6 General Medicine                259
    ##  7 Gastroenterology                230
    ##  8 Neurology                       223
    ##  9 SOAP / Chart / Progress Notes   166
    ## 10 Obstetrics / Gynecology         160
    ## # ... with 30 more rows
…
Using the results you got from questions 4. Pick a word and count the
words that appears after and before it.

``` r
mt_bigrams<- mt_samples %>% 
  unnest_ngrams(ngram,transcription,n=2,collapse=F) %>% 
  separate(ngram, into = c("word1","word2"),sep =" ") %>% 
  select(word1,word2)

mt_bigrams %>% 
  filter(word1 == "blood") %>% 
  count(word2,sort = TRUE)
```

    ## # A tibble: 161 x 2
    ##    word2        n
    ##    <chr>    <int>
    ##  1 pressure  1265
    ##  2 loss       965
    ##  3 cell       130
    ##  4 in         114
    ##  5 cells      112
    ##  6 sugar       91
    ##  7 and         84
    ##  8 sugars      79
    ##  9 was         65
    ## 10 cultures    53
    ## # ... with 151 more rows

``` r
mt_bigrams %>% 
  filter(word2 == "blood") %>% 
  count(word1,sort = TRUE)
```

    ## # A tibble: 439 x 2
    ##    word1         n
    ##    <chr>     <int>
    ##  1 estimated   754
    ##  2 white       180
    ##  3 signs       170
    ##  4 and         154
    ##  5 of          149
    ##  6 red         123
    ##  7 her         116
    ##  8 his          99
    ##  9 the          96
    ## 10 no           72
    ## # ... with 429 more rows

``` r
mt_bigrams %>% 
  anti_join(stop_words %>% select(word),by = c("word1"="word")) %>% 
  anti_join(stop_words %>% select(word),by = c("word2"="word"))%>%
  count(word1,word2,sort =T)
```

    ## # A tibble: 128,018 x 3
    ##    word1         word2           n
    ##    <chr>         <chr>       <int>
    ##  1 0             vicryl       1802
    ##  2 blood         pressure     1265
    ##  3 medical       history      1223
    ##  4 diagnoses     1            1192
    ##  5 preoperative  diagnosis    1176
    ##  6 physical      examination  1156
    ##  7 4             0            1123
    ##  8 vital         signs        1121
    ##  9 past          medical      1113
    ## 10 postoperative diagnosis    1092
    ## # ... with 128,008 more rows
…
``` r
mt_samples %>% 
  unnest_tokens(token,transcription) %>% 
  anti_join(stop_words, by = c("token" = "word")) %>% 
  filter(!(token %in% as.character(seq(0,100))))%>%
  group_by(medical_specialty) %>%
  count(token)%>% 
  top_n(5,wt=n)
```

    ## # A tibble: 210 x 3
    ## # Groups:   medical_specialty [40]
    ##    medical_specialty    token         n
    ##    <chr>                <chr>     <int>
    ##  1 Allergy / Immunology allergies    21
    ##  2 Allergy / Immunology history      38
    ##  3 Allergy / Immunology nasal        13
    ##  4 Allergy / Immunology noted        23
    ##  5 Allergy / Immunology past         13
    ##  6 Allergy / Immunology patient      22
    ##  7 Autopsy              anterior     47
    ##  8 Autopsy              body         40
    ##  9 Autopsy              inch         59
    ## 10 Autopsy              left         83
    ## # ... with 200 more rows
…
